CFSS: Computing for the Social Sciences
…
---

## Bring in 2020 Presidential election results

```r
election_2020 <- read_csv(here::here("data", "us-election-2020.csv"))
```

```r
election_2020
```

```
## # A tibble: 51 × 5
##    state                electoal_votes biden trump win       
##    <chr>                         <dbl> <dbl> <dbl> <chr>     
##  1 Alabama                           9     0     9 Republican
##  2 Alaska                            3     0     3 Republican
##  3 Arizona                          11    11     0 Democrat  
##  4 Arkansas                          6     0     6 Republican
##  5 California                       55    55     0 Democrat  
##  6 Colorado                          9     9     0 Democrat  
##  7 Connecticut                       7     7     0 Democrat  
##  8 Delaware                          3     3     0 Democrat  
##  9 District of Columbia              3     3     0 Democrat  
## 10 Florida                          29     0    29 Republican
## # … with 41 more rows
## # ℹ Use `print(n = ...)` to see more rows
```
…
