CFSS: Computing for the Social Sciences
…
---

# `rsample::loo_cv()`

```r
loocv_data <- loo_cv(Auto)
loocv_data
```

```
## # Leave-one-out cross-validation 
## # A tibble: 392 × 2
##    splits          id        
##    <list>          <chr>     
##  1 <split [391/1]> Resample1 
##  2 <split [391/1]> Resample2 
##  3 <split [391/1]> Resample3 
##  4 <split [391/1]> Resample4 
##  5 <split [391/1]> Resample5 
##  6 <split [391/1]> Resample6 
##  7 <split [391/1]> Resample7 
##  8 <split [391/1]> Resample8 
##  9 <split [391/1]> Resample9 
## 10 <split [391/1]> Resample10
## # … with 382 more rows
```
…
---

# Holdout results

```r
loocv_data$results <- map(loocv_data$splits, holdout_results)
loocv_data$mse <- map_dbl(loocv_data$results, ~ mean(.x$.resid ^ 2))
loocv_data
```

```
## # Leave-one-out cross-validation 
## # A tibble: 392 × 4
##    splits          id         results               mse
##    <list>          <chr>      <list>              <dbl>
##  1 <split [391/1]> Resample1  <tibble [1 × 11]> 80.7   
##  2 <split [391/1]> Resample2  <tibble [1 × 11]>  2.53  
##  3 <split [391/1]> Resample3  <tibble [1 × 11]>  0.0275
##  4 <split [391/1]> Resample4  <tibble [1 × 11]>  4.56  
##  5 <split [391/1]> Resample5  <tibble [1 × 11]> 26.7   
##  6 <split [391/1]> Resample6  <tibble [1 × 11]> 63.0   
##  7 <split [391/1]> Resample7  <tibble [1 × 11]>  0.124 
##  8 <split [391/1]> Resample8  <tibble [1 × 11]> 19.8   
##  9 <split [391/1]> Resample9  <tibble [1 × 11]> 38.0   
## 10 <split [391/1]> Resample10 <tibble [1 × 11]> 67.1   
## # … with 382 more rows
```
…
