CFSS: Computing for the Social Sciences
…
## Points

```r
crimes <- here("data", "nyc-crimes.csv") %>%
  read_csv()
```

```r
crimes_homicide <- filter(.data = crimes, ofns_desc == "MURDER & NON-NEGL. MANSLAUGHTER")
crimes_homicide
```

```
## # A tibble: 269 × 7
##    cmplnt_num    boro_nm   cmplnt_fr_dt        law_cat…¹ ofns_…² latit…³ longi…⁴
##    <chr>         <chr>     <dttm>              <chr>     <chr>     <dbl>   <dbl>
##  1 240954923H1   BROOKLYN  1977-12-20 05:00:00 FELONY    MURDER…    40.7   -74.0
##  2 245958045H1   BROOKLYN  2001-08-13 04:00:00 FELONY    MURDER…    40.7   -73.9
##  3 8101169H6113  MANHATTAN 2005-03-06 05:00:00 FELONY    MURDER…    40.8   -73.9
##  4 8101169H6113  MANHATTAN 2005-03-06 05:00:00 FELONY    MURDER…    40.8   -73.9
##  5 16631466H8909 BROOKLYN  2006-05-24 04:00:00 FELONY    MURDER…    40.7   -73.9
##  6 246056367H1   QUEENS    2015-05-13 04:00:00 FELONY    MURDER…    40.6   -73.7
##  7 243507594H1   MANHATTAN 2020-06-19 04:00:00 FELONY    MURDER…    40.8   -74.0
##  8 243688124H1   BROOKLYN  2021-01-31 05:00:00 FELONY    MURDER…    40.7   -73.9
##  9 240767513H1   BROOKLYN  2021-02-17 05:00:00 FELONY    MURDER…    40.6   -74.0
## 10 240767512H1   BROOKLYN  2021-05-24 04:00:00 FELONY    MURDER…    40.6   -74.0
## # … with 259 more rows, and abbreviated variable names ¹​law_cat_cd, ²​ofns_desc,
## #   ³​latitude, ⁴​longitude
## # ℹ Use `print(n = ...)` to see more rows
```
…
## Converting to `sf` data frame

```r
crimes_homicide_sf <- st_as_sf(x = crimes_homicide, coords = c("longitude", "latitude"))
st_crs(crimes_homicide_sf) <- 4326 # set the coordinate reference system
crimes_homicide_sf
```

```
## Simple feature collection with 269 features and 5 fields
## Geometry type: POINT
## Dimension:     XY
## Bounding box:  xmin: -74.08578 ymin: 40.59087 xmax: -73.73331 ymax: 40.90316
## Geodetic CRS:  WGS 84
## # A tibble: 269 × 6
##    cmpln…¹ boro_nm cmplnt_fr_dt        law_c…² ofns_…³             geometry
##  * <chr>   <chr>   <dttm>              <chr>   <chr>            <POINT [°]>
##  1 240954… BROOKL… 1977-12-20 05:00:00 FELONY  MURDER… (-73.97448 40.68079)
##  2 245958… BROOKL… 2001-08-13 04:00:00 FELONY  MURDER… (-73.92013 40.69862)
##  3 810116… MANHAT… 2005-03-06 05:00:00 FELONY  MURDER… (-73.94295 40.81126)
##  4 810116… MANHAT… 2005-03-06 05:00:00 FELONY  MURDER… (-73.94295 40.81126)
##  5 166314… BROOKL… 2006-05-24 04:00:00 FELONY  MURDER…  (-73.91796 40.6703)
##  6 246056… QUEENS  2015-05-13 04:00:00 FELONY  MURDER…  (-73.7491 40.60219)
##  7 243507… MANHAT… 2020-06-19 04:00:00 FELONY  MURDER… (-73.95732 40.81194)
##  8 243688… BROOKL… 2021-01-31 05:00:00 FELONY  MURDER…  (-73.8627 40.67093)
##  9 240767… BROOKL… 2021-02-17 05:00:00 FELONY  MURDER… (-73.97582 40.61046)
## 10 240767… BROOKL… 2021-05-24 04:00:00 FELONY  MURDER… (-73.97582 40.61046)
## # … with 259 more rows, and abbreviated variable names ¹​cmplnt_num,
## #   ²​law_cat_cd, ³​ofns_desc
## # ℹ Use `print(n = ...)` to see more rows
```
…
---

## Fill (choropleths)

```r
fb_state <- read_csv(file = here("data", "foreign-born.csv"))
```

```r
fb_state
```

```
## # A tibble: 52 × 6
##    GEOID NAME                    total   native  foreign pct_foreign
##    <chr> <chr>                   <dbl>    <dbl>    <dbl>       <dbl>
##  1 01    Alabama               4876250  4703303   172947      0.0355
##  2 02    Alaska                 737068   679401    57667      0.0782
##  3 04    Arizona               7050299  6109648   940651      0.133 
##  4 05    Arkansas              2999370  2854323   145047      0.0484
##  5 06    California           39283497 28736287 10547210      0.268 
##  6 08    Colorado              5610349  5063836   546513      0.0974
##  7 10    Delaware               957248   865775    91473      0.0956
##  8 11    District of Columbia   692683   597618    95065      0.137 
##  9 09    Connecticut           3575074  3054123   520951      0.146 
## 10 12    Florida              20901636 16576836  4324800      0.207 
## # … with 42 more rows
## # ℹ Use `print(n = ...)` to see more rows
```
…
.panel2-crimes-agg-map-auto[

```
## Simple feature collection with 269 features and 9 fields
## Geometry type: MULTIPOLYGON
## Dimension:     XY
## Bounding box:  xmin: -74.25559 ymin: 40.49613 xmax: -73.70001 ymax: 40.91553
## Geodetic CRS:  WGS 84
## # A tibble: 269 × 10
## # Groups:   boro_name [5]
##    boro_code boro_…¹ shape…² shape…³ cmpln…⁴ boro_nm cmplnt_fr_dt        law_c…⁵
##    <chr>     <chr>   <chr>   <chr>   <chr>   <chr>   <dttm>              <chr>  
##  1 5         Staten… 162363… 325924… 239347… STATEN… 2022-01-18 05:00:00 FELONY 
##  2 5         Staten… 162363… 325924… 244818… STATEN… 2022-05-09 04:00:00 FELONY 
##  3 5         Staten… 162363… 325924… 246985… STATEN… 2022-06-21 04:00:00 FELONY 
##  4 2         Bronx   118718… 463277… 242029… BRONX   2021-06-01 04:00:00 FELONY 
##  5 2         Bronx   118718… 463277… 242029… BRONX   2021-06-01 04:00:00 FELONY 
##  6 2         Bronx   118718… 463277… 243573… BRONX   2021-10-24 04:00:00 FELONY 
##  7 2         Bronx   118718… 463277… 244256… BRONX   2021-12-17 05:00:00 FELONY 
##  8 2         Bronx   118718… 463277… 240776… BRONX   2022-01-01 05:00:00 FELONY 
##  9 2         Bronx   118718… 463277… 240776… BRONX   2022-01-01 05:00:00 FELONY 
## 10 2         Bronx   118718… 463277… 240776… BRONX   2022-01-01 05:00:00 FELONY 
## # … with 259 more rows, 2 more variables: ofns_desc <chr>,
## #   geometry <MULTIPOLYGON [°]>, and abbreviated variable names ¹​boro_name,
## #   ²​shape_area, ³​shape_leng, ⁴​cmplnt_num, ⁵​law_cat_cd
## # ℹ Use `print(n = ...)` to see more rows, and `colnames()` to see all variable names
```
…
