CFSS: Computing for the Social Sciences
…
## `penguins`

<img src="../../../static/img/lter_penguins.png" width="80%" style="display: block; margin: auto;" />

---

## `penguins`

```r
penguins
```

```
## # A tibble: 344 × 8
##    species island    bill_length_mm bill_depth_mm flipper_length_mm body_mass_g
##    <fct>   <fct>              <dbl>         <dbl>             <int>       <int>
##  1 Adelie  Torgersen           39.1          18.7               181        3750
##  2 Adelie  Torgersen           39.5          17.4               186        3800
##  3 Adelie  Torgersen           40.3          18                 195        3250
##  4 Adelie  Torgersen           NA            NA                  NA          NA
##  5 Adelie  Torgersen           36.7          19.3               193        3450
##  6 Adelie  Torgersen           39.3          20.6               190        3650
##  7 Adelie  Torgersen           38.9          17.8               181        3625
##  8 Adelie  Torgersen           39.2          19.6               195        4675
##  9 Adelie  Torgersen           34.1          18.1               193        3475
## 10 Adelie  Torgersen           42            20.2               190        4250
## # ℹ 334 more rows
## # ℹ 2 more variables: sex <fct>, year <int>
```
…
---

## Saving transformed data (`<-`)

.panelset[
.panel[.panel-name[Printed, but not saved]

```r
filter(diamonds, cut == "Ideal")
```

```
## # A tibble: 21,551 × 10
##    carat cut   color clarity depth table price     x     y     z
##    <dbl> <ord> <ord> <ord>   <dbl> <dbl> <int> <dbl> <dbl> <dbl>
##  1  0.23 Ideal E     SI2      61.5    55   326  3.95  3.98  2.43
##  2  0.23 Ideal J     VS1      62.8    56   340  3.93  3.9   2.46
##  3  0.31 Ideal J     SI2      62.2    54   344  4.35  4.37  2.71
##  4  0.3  Ideal I     SI2      62      54   348  4.31  4.34  2.68
##  5  0.33 Ideal I     SI2      61.8    55   403  4.49  4.51  2.78
##  6  0.33 Ideal I     SI2      61.2    56   403  4.49  4.5   2.75
##  7  0.33 Ideal J     SI1      61.1    56   403  4.49  4.55  2.76
##  8  0.23 Ideal G     VS1      61.9    54   404  3.93  3.95  2.44
##  9  0.32 Ideal I     SI1      60.9    55   404  4.45  4.48  2.72
## 10  0.3  Ideal I     SI2      61      59   405  4.3   4.33  2.63
## # ℹ 21,541 more rows
```
…
```r
diamonds_ideal <- filter(.data = diamonds, cut == "Ideal")
```

]

.panel[.panel-name[Saved and printed]

```r
(diamonds_ideal <- filter(.data = diamonds, cut == "Ideal"))
```

```
## # A tibble: 21,551 × 10
##    carat cut   color clarity depth table price     x     y     z
##    <dbl> <ord> <ord> <ord>   <dbl> <dbl> <int> <dbl> <dbl> <dbl>
##  1  0.23 Ideal E     SI2      61.5    55   326  3.95  3.98  2.43
##  2  0.23 Ideal J     VS1      62.8    56   340  3.93  3.9   2.46
##  3  0.31 Ideal J     SI2      62.2    54   344  4.35  4.37  2.71
##  4  0.3  Ideal I     SI2      62      54   348  4.31  4.34  2.68
##  5  0.33 Ideal I     SI2      61.8    55   403  4.49  4.51  2.78
##  6  0.33 Ideal I     SI2      61.2    56   403  4.49  4.5   2.75
##  7  0.33 Ideal J     SI1      61.1    56   403  4.49  4.55  2.76
##  8  0.23 Ideal G     VS1      61.9    54   404  3.93  3.95  2.44
##  9  0.32 Ideal I     SI1      60.9    55   404  4.45  4.48  2.72
## 10  0.3  Ideal I     SI2      61      59   405  4.3   4.33  2.63
## # ℹ 21,541 more rows
```
…
